import FullCalendar from '@fullcalendar/react';
import dayGridPlugin from '@fullcalendar/daygrid';
import timeGridPlugin from '@fullcalendar/timegrid';
import interactionPlugin from '@fullcalendar/interaction';

             <FullCalendar
                plugins={[dayGridPlugin, timeGridPlugin, interactionPlugin]}
                initialView="dayGridMonth"
                headerToolbar = {{ 
                    start: 'prev', 
                    center: 'title',    
                    end: 'next',
                    center: 'dayGridMonth, timeGridWeek',
                }}
                dateClick = {(e) => console.log( e .dateStr)}
            />

commmunicate server with frontend ----------

const calendar = {
    
}


                if(state.days[action.payload.day - 1].check === false) {
                    state.days[action.payload.day].times = state.days[action.payload.day].times.map(time => {
                        return {...time, check: false};
                    })
                }







                getSortedDays(getDateObj(1, month, year), days)



                 getSortedDays(getDateObj(1, state.currentMonth, state.currentYear), action.payload.days.length).map((elem) => {